<svg width="512" height="512" viewBox="0 0 512 512" fill="none" xmlns="http://www.w3.org/2000/svg">
<path d="M501.818 90.998C499.942 86.265 495.81 82.795 490.825 81.764C485.834 80.731 480.669 82.28 477.069 85.88L399.075 163.874L357.143 154.858L348.128 112.926L426.122 34.931C429.722 31.331 431.268 26.161 430.238 21.176C429.207 16.19 425.736 12.059 421.004 10.181C367.457 -11.053 306.542 1.538 265.818 42.26C246.214 61.864 232.752 86.487 226.888 113.466C221.871 136.548 222.576 160.397 228.879 183.01L20.735 391.154C7.363 404.524 0 422.301 0 441.21C0 460.119 7.363 477.896 20.734 491.266C34.105 504.637 51.881 512 70.79 512C89.698 512 107.476 504.637 120.846 491.266L328.99 283.122C351.604 289.424 375.452 290.128 398.533 285.112C425.513 279.248 450.136 265.786 469.74 246.182C510.463 205.46 523.053 144.545 501.818 90.998Z" fill="#4B66F3"/>
</svg>
